%YAML 1.1
%TAG !u! tag:unity3d.com,2011:
--- !u!1045 &1
EditorBuildSettings:
  m_ObjectHideFlags: 0
  serializedVersion: 2
  m_Scenes:
  - enabled: 1
    path: Assets/Scenes/MainMenu.unity
    guid: 2cda990e2423bbf4892e6590ba056729
  - enabled: 1
    path: Assets/Scenes/AreaScene.unity
    guid: e17fcfea1b0f4d943801a1a408041b93
  m_configObjects:
    Unity.XR.Oculus.Settings: {fileID: 11400000, guid: 1f6db8ee99b8b84439603e985506003b, type: 2}
    com.unity.xr.management.loader_settings: {fileID: 11400000, guid: 719046f17c5424042997d12a7d6025da, type: 2}
    com.unity.xr.openxr.settings4: {fileID: 11400000, guid: dd928862e99844c4a8333849c13dc1a5, type: 2}
